{
    "follow_request_sent": false, 
    "has_extended_profile": true, 
    "profile_use_background_image": false, 
    "profile_text_color": "333333", 
    "default_profile_image": false, 
    "suspended": false, 
    "id": 89675501, 
    "profile_background_image_url_https": "https://pbs.twimg.com/profile_background_images/657528743/ofw3ebp0dqoxcddd806w.jpeg", 
    "verified": false, 
    "translator_type": "regular", 
    "profile_location": {
        "full_name": "\u0130stanbul, T\u00fcrkiye", 
        "url": "https://api.twitter.com/1.1/geo/id/5e02a0f0d91c76d2.json", 
        "country": "", 
        "place_type": "unknown", 
        "bounding_box": null, 
        "contained_within": [], 
        "country_code": "", 
        "attributes": {}, 
        "id": "5e02a0f0d91c76d2", 
        "name": "\u0130stanbul, T\u00fcrkiye"
    }, 
    "profile_image_url_https": "https://pbs.twimg.com/profile_images/456333481811800066/tnuuNEQi_normal.jpeg", 
    "profile_sidebar_fill_color": "EFEFEF", 
    "entities": {
        "url": {
            "urls": [
                {
                    "url": "https://t.co/CogD72cIKA", 
                    "indices": [
                        0, 
                        23
                    ], 
                    "expanded_url": "http://codeforhuman.com", 
                    "display_url": "codeforhuman.com"
                }
            ]
        }, 
        "description": {
            "urls": [
                {
                    "url": "https://t.co/0qsrBmtOgk", 
                    "indices": [
                        0, 
                        23
                    ], 
                    "expanded_url": "http://Tatil.com", 
                    "display_url": "Tatil.com"
                }
            ]
        }
    }, 
    "followers_count": 775, 
    "profile_sidebar_border_color": "FFFFFF", 
    "id_str": "89675501", 
    "profile_background_color": "131516", 
    "needs_phone_verification": false, 
    "listed_count": 139, 
    "status": {
        "contributors": null, 
        "truncated": false, 
        "text": "How @SlackHQ integrations can make you less busy -via @shjuddy https://t.co/tpXnN1CtIu #SaaS #startups", 
        "is_quote_status": false, 
        "in_reply_to_status_id": null, 
        "id": 766939837786124288, 
        "favorite_count": 8, 
        "source": "<a href=\"http://bufferapp.com\" rel=\"nofollow\">Buffer</a>", 
        "retweeted": false, 
        "coordinates": null, 
        "entities": {
            "symbols": [], 
            "user_mentions": [
                {
                    "id": 1305940272, 
                    "indices": [
                        4, 
                        12
                    ], 
                    "id_str": "1305940272", 
                    "screen_name": "SlackHQ", 
                    "name": "Slack"
                }
            ], 
            "hashtags": [
                {
                    "indices": [
                        87, 
                        92
                    ], 
                    "text": "SaaS"
                }, 
                {
                    "indices": [
                        93, 
                        102
                    ], 
                    "text": "startups"
                }
            ], 
            "urls": [
                {
                    "url": "https://t.co/tpXnN1CtIu", 
                    "indices": [
                        63, 
                        86
                    ], 
                    "expanded_url": "http://buff.ly/1TPLppD", 
                    "display_url": "buff.ly/1TPLppD"
                }
            ]
        }, 
        "in_reply_to_screen_name": null, 
        "in_reply_to_user_id": null, 
        "retweet_count": 0, 
        "id_str": "766939837786124288", 
        "favorited": false, 
        "geo": null, 
        "in_reply_to_user_id_str": null, 
        "possibly_sensitive": false, 
        "lang": "en", 
        "created_at": "Sat Aug 20 10:08:01 +0000 2016", 
        "in_reply_to_status_id_str": null, 
        "place": null
    }, 
    "is_translation_enabled": false, 
    "utc_offset": 10800, 
    "statuses_count": 2323, 
    "description": "https://t.co/0qsrBmtOgk'da Developer", 
    "friends_count": 546, 
    "location": "\u0130stanbul, T\u00fcrkiye", 
    "profile_link_color": "1B95E0", 
    "profile_image_url": "http://pbs.twimg.com/profile_images/456333481811800066/tnuuNEQi_normal.jpeg", 
    "following": false, 
    "geo_enabled": true, 
    "profile_banner_url": "https://pbs.twimg.com/profile_banners/89675501/1408032574", 
    "profile_background_image_url": "http://pbs.twimg.com/profile_background_images/657528743/ofw3ebp0dqoxcddd806w.jpeg", 
    "name": "Acar Full Stack", 
    "lang": "tr", 
    "profile_background_tile": false, 
    "favourites_count": 358, 
    "screen_name": "acarist", 
    "notifications": false, 
    "url": "https://t.co/CogD72cIKA", 
    "created_at": "Fri Nov 13 11:05:50 +0000 2009", 
    "contributors_enabled": false, 
    "time_zone": "Istanbul", 
    "protected": false, 
    "default_profile": false, 
    "is_translator": false
}